<svg xmlns="http://www.w3.org/2000/svg" fill="none" viewBox="0 0 192 30">
  <path fill="#21A038" d="M176.966 24.2004h-4.1V5.41406h4.1v7.89034h2.232l6.026-7.89034h4.646l-7.148 8.93684 8.3 9.8495h-5.44l-6.1-7.3885h-2.516v7.3885zM157.397 5.49219V13.337h8.484V5.49219h4.227V24.2785h-4.227V16.876h-8.484v7.4025h-4.227V5.49219h4.227zM26.514 5.82874c.7031.92126 1.2983 1.92214 1.7736 2.98253L14.805 18.8838l-5.6348-3.5797v-4.3066l5.6348 3.5798 11.709-8.74856z"/>
  <path fill="url(#paint0_linear)" d="M3.41948 15.0001c0-.1933.00465-.3853.01395-.5761l-3.4148323-.1696c-.01162291.2474-.01859357.4971-.01859357.7491C-.0014488 16.9729.380769 18.9231 1.12474 20.7423c.74397 1.8193 1.83504 3.4718 3.21063 4.8627l2.42222-2.4536c-1.05888-1.0688-1.89889-2.3392-2.47176-3.7381-.57286-1.3989-.86729-2.8987-.86635-4.4132z"/>
  <path fill="url(#paint1_linear)" d="M14.8018 3.46449c.1906 0 .38.00707.5683.01649L15.541.0190222c-.2448-.01177933-.4912-.0176683-.7392-.0176683C12.8577-.00104881 10.9324.385754 9.13624 1.13955c-1.79615.7538-3.42768 1.85975-4.80091 3.25434l2.42222 2.45482c1.05465-1.07348 2.30828-1.9251 3.68885-2.50589 1.3805-.58078 2.8606-.87928 4.3554-.87833z"/>
  <path fill="url(#paint2_linear)" d="M14.8018 26.5357c-.1906 0-.38 0-.5694-.0153l-.1709 3.4608c.2456.0125.4924.0189.7403.0189 1.9433.002 3.8678-.3851 5.663-1.1391 1.7951-.754 3.4256-1.8601 4.7978-3.2547l-2.4176-2.4536c-1.0548 1.0729-2.3083 1.9241-3.6886 2.5046-1.3803.5806-2.8601.8791-4.3546.8784z"/>
  <path fill="url(#paint3_linear)" d="M21.2179 5.47744l2.8778-2.14974C21.4654 1.16908 18.182-.00599209 14.7973.00002298V3.46434c2.2919-.00288 4.5307.69907 6.4206 2.0131z"/>
  <path fill="#21A038" d="M29.6027 14.9999c.0018-.9012-.076-1.8008-.2325-2.688l-3.1858 2.3794v.3086c.0008 1.6118-.3326 3.2058-.9785 4.6786-.646 1.4728-1.5901 2.7916-2.7711 3.8709l2.2978 2.5739c1.5355-1.4049 2.7625-3.121 3.6014-5.0372.8391-1.9162 1.2712-3.9898 1.2687-6.0862z"/>
  <path fill="url(#paint4_linear)" d="M14.8019 26.5355c-1.5904.0006-3.1633-.3374-4.6167-.992-1.45342-.6546-2.75498-1.6113-3.8204-2.808l-2.53845 2.3276c1.38599 1.5563 3.07928 2.8 4.97008 3.6505 1.89077.8504 3.93677 1.2887 6.00547 1.2862v-3.4643z"/>
  <path fill="url(#paint5_linear)" d="M7.16906 6.45038l-2.2967-2.57379C3.33646 5.28113 2.10903 6.99717 1.26965 8.9134.430276 10.8296-.00228842 12.9033.0000091 14.9998H3.41949c-.00071-1.6116.33271-3.2056.97863-4.6784.64593-1.47274 1.58996-2.79158 2.77094-3.87102z"/>
  <path fill="#21A038" d="M85.4163 8.57808l4.2351-3.1263H75.4775V24.2381h14.1739v-3.1263H79.5219v-4.8121h8.6409v-3.1263h-8.6409V8.57808h5.8944zM65.9405 12.7705h-4.9209V8.57708h7.8535l4.2325-3.1358h-16.128V24.2276H65.42c4.7331 0 7.4495-2.1495 7.4495-5.8982 0-3.5862-2.4604-5.5589-6.929-5.5589zm-.7026 8.3298h-4.2183v-5.2054h4.2183c2.56 0 3.7603.8723 3.7603 2.6027s-1.2771 2.6027-3.7603 2.6027zM100.07 5.4491h-7.7151v18.7862h4.0439v-5.3218h3.6712c4.923 0 7.968-2.5953 7.968-6.7422 0-4.14682-3.045-6.7222-7.968-6.7222zm-.0851 10.3358h-3.5861V8.57778h3.5861c2.5891 0 4.0181 1.28056 4.0181 3.60492 0 2.3244-1.429 3.6022-4.0181 3.6022zM50.9091 19.802c-1.0447.5669-2.2151.8604-3.4029.8534-3.5554 0-6.1346-2.5432-6.1346-6.0453s2.5792-6.05089 6.1346-6.05089c1.2821-.02182 2.5376.36774 3.5831 1.11181l2.8288-2.0874-.1914-.13619c-1.6501-1.45365-3.8549-2.22355-6.3786-2.22355-2.7373 0-5.2193.92277-6.9915 2.60156-.8961.86438-1.6047 1.90456-2.0819 3.05566-.4771 1.151-.7125 2.3882-.6914 3.6344-.0189 1.259.2154 2.5088.689 3.675.4737 1.1662 1.1769 2.2247 2.0677 3.1125 1.7804 1.7455 4.257 2.7071 6.9749 2.7071 2.8398 0 5.322-.9923 7.0026-2.7988l-2.5321-1.89-.8763.4807zM124.073 12.7705h-4.919V8.57708h10.57v-3.1358h-14.615V24.2276h8.432c4.732 0 7.449-2.1495 7.449-5.8982.011-3.5862-2.449-5.5589-6.917-5.5589zm-.703 8.3298h-4.216v-5.2054h4.216c2.56 0 3.76.8723 3.76 2.6027s-1.266 2.6027-3.76 2.6027zM145.885 20.6303h-8.673l-1.47 3.648h-4.363l8.134-18.78623h4.362l8.003 18.78623h-4.523l-1.47-3.648zm-1.358-3.4039l-2.953-7.29627-2.969 7.29627h5.922z"/>
  <defs>
    <linearGradient id="paint0_linear" x1="5.02694" x2="1.20117" y1="25.1727" y2="14.2601" gradientUnits="userSpaceOnUse">
      <stop offset=".14" stop-color="#F1E813"/>
      <stop offset=".3" stop-color="#E6E418"/>
      <stop offset=".58" stop-color="#C9DA26"/>
      <stop offset=".89" stop-color="#A2CC39"/>
    </linearGradient>
    <linearGradient id="paint1_linear" x1="5.31165" x2="14.9666" y1="5.00642" y2="1.37592" gradientUnits="userSpaceOnUse">
      <stop offset=".06" stop-color="#0FA7DF"/>
      <stop offset=".54" stop-color="#0098F8"/>
      <stop offset=".92" stop-color="#0290EA"/>
    </linearGradient>
    <linearGradient id="paint2_linear" x1="13.8361" x2="24.7314" y1="27.9092" y2="25.4805" gradientUnits="userSpaceOnUse">
      <stop offset=".12" stop-color="#A2CC39"/>
      <stop offset=".28" stop-color="#86C239"/>
      <stop offset=".87" stop-color="#219F38"/>
    </linearGradient>
    <linearGradient id="paint3_linear" x1="14.086" x2="23.4104" y1="1.16029" y2="3.99956" gradientUnits="userSpaceOnUse">
      <stop offset=".06" stop-color="#0290EA"/>
      <stop offset=".79" stop-color="#0C89CA"/>
    </linearGradient>
    <linearGradient id="paint4_linear" x1="4.68412" x2="14.8429" y1="24.6414" y2="28.3877" gradientUnits="userSpaceOnUse">
      <stop offset=".13" stop-color="#F1E813"/>
      <stop offset=".3" stop-color="#EAE616"/>
      <stop offset=".53" stop-color="#D8DF1F"/>
      <stop offset=".8" stop-color="#BAD52D"/>
      <stop offset=".98" stop-color="#A2CC39"/>
    </linearGradient>
    <linearGradient id="paint5_linear" x1="1.27388" x2="5.43406" y1="15.4192" y2="4.74076" gradientUnits="userSpaceOnUse">
      <stop offset=".07" stop-color="#A2CC39"/>
      <stop offset=".26" stop-color="#81C45E"/>
      <stop offset=".92" stop-color="#0FA7DF"/>
    </linearGradient>
  </defs>
</svg>
